…
#### TDA

I get stuck here. To my undertanding there should be TDA feature(s?) for
every month and name with the feature(s?) generated by feeding the
previous 52-week price history to TDA functions. The output dataset in
the original github repo shows 100 values (columns) for each name (row):

``` r
tibble::as.tibble(read.csv("../data/TDA_features_tr.csv"))
```

    #> # A tibble: 41,112 x 102
    #>        X V1       V2      V3     V4     V5      V6     V7     V8     V9
    #>    <int> <fct> <int>   <dbl>  <dbl>  <dbl>   <dbl>  <dbl>  <dbl>  <dbl>
    #>  1     1 ADRA      0 0.471   0.941  1.41   1.88    2.35   2.82   3.29  
    #>  2     2 ADRD      0 0.478   0.567  0.0886 0       0.284  0.763  1.24  
    #>  3     3 ADRE      0 0.732   1.46   2.20   2.93    3.66   3.68   2.94  
    #>  4     4 ADRU      0 0.557   0.124  0      0       0.358  0.915  1.47  
    #>  5     5 AGG       0 0.109   0.218  0.261  0.152   0.0428 0      0.0333
    #>  6     6 AUSE      0 0.637   1.20   1.23   1.87    2.51   3.14   3.78  
    #>  7     7 AXJL      0 0.707   1.41   2.12   2.83    3.53   4.24   3.76  
    #>  8     8 BIL       0 0.00977 0.0195 0.0293 0.0391  0.0488 0.0586 0.0684
    #>  9     9 BIV       0 0.150   0.300  0.154  0.00356 0      0      0     
    #> 10    10 BLV       0 0.141   0.282  0.423  0.564   0.705  0.588  0.729 
    #> # ... with 41,102 more rows, and 92 more variables: V10 <dbl>, V11 <dbl>,
    #> #   V12 <dbl>, V13 <dbl>, V14 <dbl>, V15 <dbl>, V16 <dbl>, V17 <dbl>,
    #> #   V18 <dbl>, V19 <dbl>, V20 <dbl>, V21 <dbl>, V22 <dbl>, V23 <dbl>,
    #> #   V24 <dbl>, V25 <dbl>, V26 <dbl>, V27 <dbl>, V28 <dbl>, V29 <dbl>,
    #> #   V30 <dbl>, V31 <dbl>, V32 <dbl>, V33 <dbl>, V34 <dbl>, V35 <dbl>,
    #> #   V36 <dbl>, V37 <dbl>, V38 <dbl>, V39 <dbl>, V40 <dbl>, V41 <dbl>,
    #> #   V42 <dbl>, V43 <dbl>, V44 <dbl>, V45 <dbl>, V46 <dbl>, V47 <dbl>,
    #> #   V48 <dbl>, V49 <dbl>, V50 <dbl>, V51 <int>, V52 <int>, V53 <dbl>,
    #> #   V54 <dbl>, V55 <dbl>, V56 <dbl>, V57 <dbl>, V58 <dbl>, V59 <dbl>,
…
